{
    "name": "contact-block-one",
    "title": "Contact Block One",
    "description": "A contact block",
    "category": "common",
    "mode":"preview",
    "supports": {
        "align": false,
        "mode": "true",
        "multiple":"true",
        "jsx": "false",
        "align_content": false,
        "anchor": "false"
    }
}