{
    "key": "group_6261e7b106eaa",
    "title": "Content Cards One",
    "fields": [
        {
            "key": "field_6261e7b109ac0",
            "label": "Content",
            "name": "content",
            "type": "wysiwyg",
            "instructions": "",
            "required": 0,
            "conditional_logic": 0,
            "wrapper": {
                "width": "",
                "class": "",
                "id": ""
            },
            "default_value": "",
            "tabs": "all",
            "toolbar": "full",
            "media_upload": 1,
            "delay": 0,
            "acfe_wysiwyg_height": 300,
            "acfe_wysiwyg_max_height": "",
            "acfe_wysiwyg_valid_elements": "",
            "acfe_wysiwyg_custom_style": "",
            "acfe_wysiwyg_disable_wp_style": 0,
            "acfe_wysiwyg_autoresize": 0,
            "acfe_wysiwyg_disable_resize": 0,
            "acfe_wysiwyg_remove_path": 0,
            "acfe_wysiwyg_menubar": 0,
            "acfe_wysiwyg_transparent": 0,
            "acfe_wysiwyg_merge_toolbar": 0,
            "acfe_wysiwyg_custom_toolbar": 0,
            "acfe_field_group_condition": 0
        },
        {
            "key": "field_6261e7b109af8",
            "label": "Background Color",
            "name": "background_color",
            "type": "select",
            "instructions": "",
            "required": 0,
            "conditional_logic": 0,
            "wrapper": {
                "width": "",
                "class": "",
                "id": ""
            },
            "choices": {
                "white": "White",
                "#F3F6F9": "Primary"
            },
            "default_value": false,
            "allow_null": 0,
            "multiple": 0,
            "max": "",
            "ui": 0,
            "return_format": "value",
            "prepend": "",
            "append": "",
            "acfe_field_group_condition": 0,
            "ajax": 0,
            "placeholder": ""
        },
        {
            "key": "field_6261e7b10ecfe",
            "label": "Button",
            "name": "button",
            "type": "group",
            "instructions": "",
            "required": 0,
            "conditional_logic": 0,
            "wrapper": {
                "width": "",
                "class": "",
                "id": ""
            },
            "layout": "block",
            "acfe_seamless_style": 0,
            "acfe_group_modal": 0,
            "acfe_field_group_condition": 0,
            "sub_fields": [
                {
                    "key": "field_6261e7b1140bb",
                    "label": "Link",
                    "name": "link",
                    "type": "link",
                    "instructions": "",
                    "required": 0,
                    "conditional_logic": 0,
                    "wrapper": {
                        "width": "",
                        "class": "",
                        "id": ""
                    },
                    "return_format": "array",
                    "acfe_field_group_condition": 0
                },
                {
                    "key": "field_6261e7b1140f7",
                    "label": "Style",
                    "name": "style",
                    "type": "select",
                    "instructions": "",
                    "required": 0,
                    "conditional_logic": 0,
                    "wrapper": {
                        "width": "",
                        "class": "",
                        "id": ""
                    },
                    "choices": {
                        "btn-primary": "Primary",
                        "btn-secondary": "Secondary"
                    },
                    "default_value": false,
                    "allow_null": 0,
                    "multiple": 0,
                    "max": "",
                    "ui": 0,
                    "return_format": "value",
                    "prepend": "",
                    "append": "",
                    "acfe_field_group_condition": 0,
                    "ajax": 0,
                    "placeholder": ""
                }
            ]
        },
        {
            "key": "field_6261e7b109b68",
            "label": "Cards",
            "name": "cards",
            "type": "repeater",
            "instructions": "",
            "required": 0,
            "conditional_logic": 0,
            "wrapper": {
                "width": "",
                "class": "",
                "id": ""
            },
            "acfe_repeater_stylised_button": 0,
            "collapsed": "",
            "min": 0,
            "max": 4,
            "layout": "table",
            "button_label": "Add Card",
            "acfe_field_group_condition": 0,
            "sub_fields": [
                {
                    "key": "field_6261e7b10ebd8",
                    "label": "Icon",
                    "name": "icon",
                    "type": "image",
                    "instructions": "",
                    "required": 0,
                    "conditional_logic": 0,
                    "wrapper": {
                        "width": "",
                        "class": "",
                        "id": ""
                    },
                    "uploader": "",
                    "acfe_thumbnail": 0,
                    "return_format": "array",
                    "preview_size": "medium",
                    "min_width": "",
                    "min_height": "",
                    "min_size": "",
                    "max_width": "",
                    "max_height": "",
                    "max_size": "",
                    "mime_types": "",
                    "acfe_field_group_condition": 0,
                    "library": "all"
                },
                {
                    "key": "field_6261e7b10ec3d",
                    "label": "Background Color",
                    "name": "bg_color",
                    "type": "select",
                    "instructions": "",
                    "required": 0,
                    "conditional_logic": 0,
                    "wrapper": {
                        "width": "",
                        "class": "",
                        "id": ""
                    },
                    "choices": {
                        "#1C4584": "Primary",
                        "#327B3C": "Secondary"
                    },
                    "default_value": false,
                    "allow_null": 0,
                    "multiple": 0,
                    "max": "",
                    "ui": 0,
                    "return_format": "value",
                    "prepend": "",
                    "append": "",
                    "acfe_field_group_condition": 0,
                    "ajax": 0,
                    "placeholder": ""
                },
                {
                    "key": "field_6261e7b10ecbf",
                    "label": "Content",
                    "name": "content",
                    "type": "wysiwyg",
                    "instructions": "",
                    "required": 0,
                    "conditional_logic": 0,
                    "wrapper": {
                        "width": "",
                        "class": "",
                        "id": ""
                    },
                    "default_value": "",
                    "tabs": "all",
                    "toolbar": "full",
                    "media_upload": 1,
                    "delay": 0,
                    "acfe_wysiwyg_height": 300,
                    "acfe_wysiwyg_max_height": "",
                    "acfe_wysiwyg_valid_elements": "",
                    "acfe_wysiwyg_custom_style": "",
                    "acfe_wysiwyg_disable_wp_style": 0,
                    "acfe_wysiwyg_autoresize": 0,
                    "acfe_wysiwyg_disable_resize": 0,
                    "acfe_wysiwyg_remove_path": 0,
                    "acfe_wysiwyg_menubar": 0,
                    "acfe_wysiwyg_transparent": 0,
                    "acfe_wysiwyg_merge_toolbar": 0,
                    "acfe_wysiwyg_custom_toolbar": 0,
                    "acfe_field_group_condition": 0
                }
            ]
        }
    ],
    "location": [
        [
            {
                "param": "block",
                "operator": "==",
                "value": "acf\/content-cards-one"
            }
        ]
    ],
    "menu_order": 0,
    "position": "normal",
    "style": "default",
    "label_placement": "left",
    "instruction_placement": "label",
    "hide_on_screen": "",
    "active": true,
    "description": "",
    "show_in_rest": 0,
    "acfe_autosync": [
        "json"
    ],
    "acfe_form": 0,
    "acfe_display_title": "",
    "acfe_meta": "",
    "acfe_note": "",
    "modified": 1650585814
}