{
    "key": "group_6261f0da3e5fa",
    "title": "CTA Block One",
    "fields": [
        {
            "key": "field_6261f0da40d66",
            "label": "Content",
            "name": "content",
            "type": "wysiwyg",
            "instructions": "",
            "required": 0,
            "conditional_logic": 0,
            "wrapper": {
                "width": "",
                "class": "",
                "id": ""
            },
            "default_value": "",
            "tabs": "all",
            "toolbar": "full",
            "media_upload": 1,
            "delay": 0,
            "acfe_wysiwyg_height": 300,
            "acfe_wysiwyg_max_height": "",
            "acfe_wysiwyg_valid_elements": "",
            "acfe_wysiwyg_custom_style": "",
            "acfe_wysiwyg_disable_wp_style": 0,
            "acfe_wysiwyg_autoresize": 0,
            "acfe_wysiwyg_disable_resize": 0,
            "acfe_wysiwyg_remove_path": 0,
            "acfe_wysiwyg_menubar": 0,
            "acfe_wysiwyg_transparent": 0,
            "acfe_wysiwyg_merge_toolbar": 0,
            "acfe_wysiwyg_custom_toolbar": 0,
            "acfe_field_group_condition": 0
        },
        {
            "key": "field_6261f0da40da1",
            "label": "Background Color",
            "name": "background_color",
            "type": "select",
            "instructions": "",
            "required": 0,
            "conditional_logic": 0,
            "wrapper": {
                "width": "",
                "class": "",
                "id": ""
            },
            "choices": {
                "white": "White",
                "#F3F6F9": "Primary"
            },
            "default_value": false,
            "allow_null": 0,
            "multiple": 0,
            "max": "",
            "ui": 0,
            "return_format": "value",
            "prepend": "",
            "append": "",
            "acfe_field_group_condition": 0,
            "ajax": 0,
            "placeholder": ""
        },
        {
            "key": "field_6261f0da40dda",
            "label": "Button",
            "name": "button",
            "type": "group",
            "instructions": "",
            "required": 0,
            "conditional_logic": 0,
            "wrapper": {
                "width": "",
                "class": "",
                "id": ""
            },
            "layout": "block",
            "acfe_seamless_style": 0,
            "acfe_group_modal": 0,
            "acfe_field_group_condition": 0,
            "sub_fields": [
                {
                    "key": "field_6261f0da43e16",
                    "label": "Link",
                    "name": "link",
                    "type": "link",
                    "instructions": "",
                    "required": 0,
                    "conditional_logic": 0,
                    "wrapper": {
                        "width": "",
                        "class": "",
                        "id": ""
                    },
                    "return_format": "array",
                    "acfe_field_group_condition": 0
                },
                {
                    "key": "field_6261f0da43e52",
                    "label": "Style",
                    "name": "style",
                    "type": "select",
                    "instructions": "",
                    "required": 0,
                    "conditional_logic": 0,
                    "wrapper": {
                        "width": "",
                        "class": "",
                        "id": ""
                    },
                    "choices": {
                        "btn-primary": "Primary",
                        "btn-secondary": "Secondary"
                    },
                    "default_value": false,
                    "allow_null": 0,
                    "multiple": 0,
                    "max": "",
                    "ui": 0,
                    "return_format": "value",
                    "prepend": "",
                    "append": "",
                    "acfe_field_group_condition": 0,
                    "ajax": 0,
                    "placeholder": ""
                }
            ]
        },
        {
            "key": "field_6261f0fd0d836",
            "label": "Countdown",
            "name": "countdown",
            "type": "group",
            "instructions": "",
            "required": 0,
            "conditional_logic": 0,
            "wrapper": {
                "width": "",
                "class": "",
                "id": ""
            },
            "layout": "block",
            "acfe_seamless_style": 0,
            "acfe_group_modal": 0,
            "acfe_field_group_condition": 0,
            "sub_fields": [
                {
                    "key": "field_6261f1020d837",
                    "label": "Title",
                    "name": "title",
                    "type": "text",
                    "instructions": "",
                    "required": 0,
                    "conditional_logic": 0,
                    "wrapper": {
                        "width": "",
                        "class": "",
                        "id": ""
                    },
                    "default_value": "",
                    "placeholder": "",
                    "prepend": "",
                    "append": "",
                    "maxlength": "",
                    "acfe_field_group_condition": 0
                },
                {
                    "key": "field_6261f1060d838",
                    "label": "Date",
                    "name": "date",
                    "type": "date_time_picker",
                    "instructions": "",
                    "required": 0,
                    "conditional_logic": 0,
                    "wrapper": {
                        "width": "",
                        "class": "",
                        "id": ""
                    },
                    "display_format": "F j, Y H:i:s",
                    "return_format": "Y-m-d H:i:s",
                    "first_day": 1,
                    "placeholder": "",
                    "min_date": "",
                    "max_date": "",
                    "min_time": "",
                    "max_time": "",
                    "no_weekends": 0,
                    "min_hour": "",
                    "max_hour": "",
                    "min_min": "",
                    "max_min": "",
                    "min_sec": "",
                    "max_sec": "",
                    "acfe_field_group_condition": 0
                }
            ]
        }
    ],
    "location": [
        [
            {
                "param": "block",
                "operator": "==",
                "value": "acf\/cta-block-one"
            }
        ]
    ],
    "menu_order": 0,
    "position": "normal",
    "style": "default",
    "label_placement": "left",
    "instruction_placement": "label",
    "hide_on_screen": "",
    "active": true,
    "description": "",
    "show_in_rest": 0,
    "acfe_autosync": [
        "json"
    ],
    "acfe_form": 0,
    "acfe_display_title": "",
    "acfe_meta": "",
    "acfe_note": "",
    "modified": 1655786591
}