<svg xmlns="http://www.w3.org/2000/svg" width="21.695" height="21.564" viewBox="0 0 21.695 21.564">
  <path id="Icon_awesome-facebook" data-name="Icon awesome-facebook" d="M22.258,11.41A10.848,10.848,0,1,0,9.715,22.126V14.546H6.96V11.41H9.715V9.02c0-2.718,1.618-4.22,4.1-4.22a16.694,16.694,0,0,1,2.428.212V7.68H14.873a1.568,1.568,0,0,0-1.768,1.694V11.41h3.008l-.481,3.136H13.105v7.581A10.851,10.851,0,0,0,22.258,11.41Z" transform="translate(-0.563 -0.563)" fill="#1c4584"/>
</svg>
