{
    "name": "careers-index",
    "title": "Careers Index",
    "description": "A customisable content block",
    "category": "common",
    "mode":"preview",
    "supports": {
        "align": "true",
        "mode": "false",
        "jsx": "true"
    }
}